{
    "count": 30,
    "next": "http://api-merchant.tranzo.pk/merchant/api/v1/merchant-invoice-logs?limit=10&page=2",
    "previous": null,
    "results": [
        {
            "id": 12796,
            "invoice_number": "INV-0033300000030",
            "invoice_type": "Delivered/Returned",
            "merchant": "Organic Tea",
            "merchant_store": null,
            "total_orders": 67,
            "net_amount": "75842.64",
            "created_at": "2026-02-11 04:01:18",
            "created_by": "System",
            "invoice_status": "Approved",
            "approved_at": "2026-02-11 14:00:07",
            "approved_by": "Maham nadeem",
            "hold_at": null,
            "hold_by": null,
            "settled_at": null,
            "settled_by": null,
            "disputed_at": null,
            "disputed_by": null
        },
        {
            "id": 12451,
            "invoice_number": "INV-0033300000029",
            "invoice_type": "Delivered/Returned",
            "merchant": "Organic Tea",
            "merchant_store": null,
            "total_orders": 21,
            "net_amount": "23818.44",
            "created_at": "2026-02-09 04:01:11",
            "created_by": "System",
            "invoice_status": "Settled",
            "approved_at": "2026-02-11 13:50:32",
            "approved_by": "Maham nadeem",
            "hold_at": null,
            "hold_by": null,
            "settled_at": "2026-02-12 20:32:23",
            "settled_by": "Babar Razzaq",
            "disputed_at": null,
            "disputed_by": null
        },
        {
            "id": 12183,
            "invoice_number": "INV-0033300000028",
            "invoice_type": "Delivered/Returned",
            "merchant": "Organic Tea",
            "merchant_store": null,
            "total_orders": 38,
            "net_amount": "43581.96",
            "created_at": "2026-02-06 04:01:16",
            "created_by": "System",
            "invoice_status": "Settled",
            "approved_at": "2026-02-11 13:50:32",
            "approved_by": "Maham nadeem",
            "hold_at": null,
            "hold_by": null,
            "settled_at": "2026-02-12 20:32:23",
            "settled_by": "Babar Razzaq",
            "disputed_at": null,
            "disputed_by": null
        },
        {
            "id": 11870,
            "invoice_number": "INV-0033300000027",
            "invoice_type": "Delivered/Returned",
            "merchant": "Organic Tea",
            "merchant_store": null,
            "total_orders": 50,
            "net_amount": "57890.86",
            "created_at": "2026-02-04 04:01:21",
            "created_by": "System",
            "invoice_status": "Settled",
            "approved_at": "2026-02-04 12:09:35",
            "approved_by": "Maham nadeem",
            "hold_at": null,
            "hold_by": null,
            "settled_at": "2026-02-04 17:00:50",
            "settled_by": "Maham nadeem",
            "disputed_at": null,
            "disputed_by": null
        },
        {
            "id": 10863,
            "invoice_number": "INV-0033300000026",
            "invoice_type": "Delivered/Returned",
            "merchant": "Organic Tea",
            "merchant_store": null,
            "total_orders": 3,
            "net_amount": "-341.04",
            "created_at": "2026-01-28 04:01:23",
            "created_by": "System",
            "invoice_status": "Settled",
            "approved_at": "2026-01-29 14:56:37",
            "approved_by": "Syed Kamal Mujtaba",
            "hold_at": null,
            "hold_by": null,
            "settled_at": "2026-02-04 12:09:53",
            "settled_by": "Maham nadeem",
            "disputed_at": null,
            "disputed_by": null
        },
        {
            "id": 10502,
            "invoice_number": "INV-0033300000025",
            "invoice_type": "Delivered/Returned",
            "merchant": "Organic Tea",
            "merchant_store": null,
            "total_orders": 1,
            "net_amount": "1052.84",
            "created_at": "2026-01-26 04:01:57",
            "created_by": "System",
            "invoice_status": "Settled",
            "approved_at": "2026-01-26 18:13:05",
            "approved_by": "Maham nadeem",
            "hold_at": null,
            "hold_by": null,
            "settled_at": "2026-01-29 20:09:17",
            "settled_by": "Maham nadeem",
            "disputed_at": null,
            "disputed_by": null
        },
        {
            "id": 10189,
            "invoice_number": "INV-0033300000024",
            "invoice_type": "Delivered/Returned",
            "merchant": "Organic Tea",
            "merchant_store": null,
            "total_orders": 18,
            "net_amount": "1343.70",
            "created_at": "2026-01-23 04:01:32",
            "created_by": "System",
            "invoice_status": "Settled",
            "approved_at": "2026-01-23 16:53:25",
            "approved_by": "Maham nadeem",
            "hold_at": null,
            "hold_by": null,
            "settled_at": "2026-01-29 20:09:29",
            "settled_by": "Maham nadeem",
            "disputed_at": null,
            "disputed_by": null
        },
        {
            "id": 9857,
            "invoice_number": "INV-0033300000023",
            "invoice_type": "Delivered/Returned",
            "merchant": "Organic Tea",
            "merchant_store": null,
            "total_orders": 3,
            "net_amount": "3255.96",
            "created_at": "2026-01-21 04:01:38",
            "created_by": "System",
            "invoice_status": "Settled",
            "approved_at": "2026-01-21 18:41:19",
            "approved_by": "Maham nadeem",
            "hold_at": null,
            "hold_by": null,
            "settled_at": "2026-01-22 09:07:10",
            "settled_by": "Abid Naveed",
            "disputed_at": null,
            "disputed_by": null
        },
        {
            "id": 9501,
            "invoice_number": "INV-0033300000022",
            "invoice_type": "Delivered/Returned",
            "merchant": "Organic Tea",
            "merchant_store": null,
            "total_orders": 41,
            "net_amount": "37480.94",
            "created_at": "2026-01-19 04:02:02",
            "created_by": "System",
            "invoice_status": "Settled",
            "approved_at": "2026-01-20 01:55:10",
            "approved_by": "Maham nadeem",
            "hold_at": null,
            "hold_by": null,
            "settled_at": "2026-01-20 17:00:23",
            "settled_by": "Abid Naveed",
            "disputed_at": null,
            "disputed_by": null
        },
        {
            "id": 9192,
            "invoice_number": "INV-0033300000021",
            "invoice_type": "Delivered/Returned",
            "merchant": "Organic Tea",
            "merchant_store": null,
            "total_orders": 48,
            "net_amount": "40651.64",
            "created_at": "2026-01-16 04:01:59",
            "created_by": "System",
            "invoice_status": "Settled",
            "approved_at": "2026-01-20 01:55:10",
            "approved_by": "Maham nadeem",
            "hold_at": null,
            "hold_by": null,
            "settled_at": "2026-01-20 17:00:19",
            "settled_by": "Abid Naveed",
            "disputed_at": null,
            "disputed_by": null
        }
    ]
}